Requested Torque (Nm),RPM (RPM),Data,,,,,,,,,,,,,,,
0,800,-0.41,-0.01,0.03,0.03,0.03,0.03,0.03,0.03,0.03,0.03,0.03,0.03,0.03,0.03,0.03,0.03
140,1200,-0.56,0.04,0.09,0.12,0.15,0.15,0.15,0.15,0.15,0.15,0.15,0.15,0.15,0.15,0.15,0.15
160,1600,-0.67,0.02,0.07,0.12,0.19,0.27,0.4,0.4,0.4,0.4,0.4,0.4,0.4,0.4,0.4,0.4
180,2000,-0.71,-0.05,0.01,0.09,0.18,0.27,0.39,0.51,0.59,0.64,0.74,0.89,0.89,0.89,0.89,0.89
200,2400,-0.8,-0.1,-0.01,0.1,0.21,0.31,0.41,0.51,0.61,0.72,0.84,0.95,1.01,1.01,1.01,1.01
220,2800,-0.79,-0.06,0.04,0.13,0.24,0.34,0.45,0.56,0.67,0.8,0.93,1.06,1.12,1.12,1.12,1.12
240,3200,-0.8,-0.06,0.04,0.12,0.21,0.29,0.44,0.58,0.73,0.89,1.06,1.23,1.31,1.31,1.31,1.31
260,3600,-0.81,-0.14,-0.06,0.04,0.15,0.23,0.38,0.54,0.69,0.87,1.05,1.22,1.31,1.31,1.31,1.31
280,4000,-0.79,-0.16,-0.06,0.04,0.18,0.26,0.41,0.56,0.71,0.88,1.05,1.22,1.31,1.31,1.31,1.31
300,4400,-0.8,-0.26,-0.17,-0.08,0.04,0.17,0.32,0.48,0.64,0.82,1,1.19,1.28,1.28,1.28,1.28
320,4800,-0.77,-0.31,-0.18,-0.03,0.09,0.23,0.38,0.52,0.67,0.82,0.98,1.14,1.22,1.22,1.22,1.22
340,5200,-0.76,-0.31,-0.16,-0.03,0.09,0.22,0.36,0.51,0.65,0.8,0.95,1.09,1.17,1.17,1.17,1.17
350,5600,-0.74,-0.26,-0.11,0.02,0.16,0.26,0.39,0.52,0.66,0.79,0.93,1.06,1.13,1.13,1.13,1.13
360,6000,-0.74,-0.21,-0.06,0.03,0.13,0.25,0.37,0.49,0.61,0.73,0.85,0.97,1.03,1.03,1.03,1.03
400,6400,-0.7,-0.08,0.03,0.14,0.24,0.34,0.44,0.53,0.62,0.71,0.8,0.89,0.93,0.93,0.93,0.93
420,6600,-0.7,-0.03,0.07,0.21,0.28,0.34,0.44,0.52,0.61,0.7,0.79,0.87,0.91,0.91,0.91,0.91
,6800,-0.7,-0.03,0.07,0.21,0.28,0.34,0.43,0.52,0.6,0.69,0.77,0.85,0.89,0.89,0.89,0.89
,7200,-0.7,-0.03,0.07,0.21,0.28,0.34,0.43,0.51,0.59,0.66,0.74,0.82,0.86,0.86,0.86,0.86
,7600,-0.7,-0.03,0.07,0.21,0.28,0.34,0.42,0.49,0.57,0.64,0.71,0.78,0.82,0.82,0.82,0.82