Calculated Load,RPM,Data,,,,,,,
0.26,800,180,180,180,180,180,180,180,160
0.52,825,180,180,180,180,180,180,180,160
0.78,950,180,180,180,180,180,180,180,180
1.03,1200,193,186,180,180,180,180,200,200
1.29,1600,207,213,220,214,214,214,214,220
1.55,2000,220,225,230,234,240,244,244,240
1.81,2400,220,225,230,234,244,252,254,260
2.07,2800,230,220,230,240,260,267,270,260
,3200,235,230,245,260,280,280,280,280
,3600,240,240,260,280,294,295,294,280
,4000,247,250,265,280,300,300,316,300
,4400,253,260,270,280,320,320,336,320
,4800,260,260,280,300,320,340,340,340
,5200,260,260,280,300,320,340,340,340
,5600,260,260,280,300,320,340,340,360
,6400,260,260,280,300,320,340,340,360