Volts (V),MAF (g/sec)
0,1.91
0.08,1.91
0.16,1.91
0.24,1.91
0.32,1.91
0.4,1.91
0.48,1.91
0.56,1.95
0.64,2.09
0.72,2.28
0.8,2.6
0.88,3.14
0.96,3.77
1.04,4.4
1.12,5.33
1.2,6.33
1.28,7.69
1.36,8.74
1.44,10.35
1.52,11.73
1.6,13.58
1.68,15.69
1.76,17.94
1.84,20.23
1.92,22.17
2,24.56
2.08,27.27
2.16,30.64
2.24,34.18
2.32,37.82
2.4,41.1
2.48,44.86
2.56,50.45
2.64,54.66
2.72,60.54
2.8,65.39
2.88,71.69
2.96,78.64
3.04,86.08
3.12,93.75
3.2,101.02
3.28,108.41
3.36,115.46
3.44,123.44
3.52,134.88
3.6,145.59
3.68,157.19
3.76,169.3
3.84,178.55
3.92,187.53
4,198.44
4.08,209.24
4.16,221.23
4.24,229.92
4.32,243.15
4.4,257.53
4.48,273.28
4.56,290.08
4.64,308.06
4.72,327.34
4.8,348.1
4.88,370.52
4.96,394.8
5.04,421.15
